<?xml version="1.0" encoding="UTF-8"?>
<svg width="40px" height="40px" viewBox="0 0 40 40" version="1.1" xmlns="http://www.w3.org/2000/svg" xmlns:xlink="http://www.w3.org/1999/xlink">
    <!-- Generator: Sketch Beta 41.1 (35375) - http://www.bohemiancoding.com/sketch -->
    <title>ic_user_play_list</title>
    <desc>Created with Sketch Beta.</desc>
    <defs></defs>
    <g id="Symbols" stroke="none" stroke-width="1" fill="none" fill-rule="evenodd">
        <g id="playlist-item" transform="translate(-38.000000, -38.000000)" fill="#CCCCCC">
            <path d="M42.8571429,38 L78,38 L78,40.8571429 L46.5,40.8571429 L42.8571429,38 Z M53.7857143,50.3809524 L78,50.3809524 L78,53.2380952 L50.1428571,53.2380952 L53.7857143,50.3809524 Z M38,62.7619048 L78,62.7619048 L78,65.6190476 L38,65.6190476 L38,62.7619048 Z M38,75.1428571 L78,75.1428571 L78,78 L38,78 L38,75.1428571 Z M51.3333333,48.4761905 L38,58.952381 L38,38 L51.3333333,48.4761905 Z" id="ic_user_play_list"></path>
        </g>
    </g>
</svg>