<?xml version="1.0" encoding="UTF-8"?>
<svg width="16px" height="16px" viewBox="0 0 4 16" version="1.1" xmlns="http://www.w3.org/2000/svg" xmlns:xlink="http://www.w3.org/1999/xlink">
    <!-- Generator: Sketch Beta 41.1 (35375) - http://www.bohemiancoding.com/sketch -->
    <title>Ic_more</title>
    <desc>Created with Sketch Beta.</desc>
    <defs></defs>
    <g id="page" stroke="none" stroke-width="1" fill="none" fill-rule="evenodd">
        <g id="Desktop-1600-(1360+)-Copy" transform="translate(-1369.000000, -26.000000)" fill="#ECEFF1">
            <g id="header">
                <path d="M1371,42 C1372.10457,42 1373,41.1045695 1373,40 C1373,38.8954305 1372.10457,38 1371,38 C1369.89543,38 1369,38.8954305 1369,40 C1369,41.1045695 1369.89543,42 1371,42 Z M1371,36 C1372.10457,36 1373,35.1045695 1373,34 C1373,32.8954305 1372.10457,32 1371,32 C1369.89543,32 1369,32.8954305 1369,34 C1369,35.1045695 1369.89543,36 1371,36 Z M1371,30 C1372.10457,30 1373,29.1045695 1373,28 C1373,26.8954305 1372.10457,26 1371,26 C1369.89543,26 1369,26.8954305 1369,28 C1369,29.1045695 1369.89543,30 1371,30 Z" id="Ic_more"></path>
            </g>
        </g>
    </g>
</svg>