<?xml version="1.0" encoding="UTF-8"?>
<svg width="16px" height="16px" viewBox="0 0 16 16" version="1.1" xmlns="http://www.w3.org/2000/svg" xmlns:xlink="http://www.w3.org/1999/xlink">
    <!-- Generator: Sketch Beta 41.1 (35375) - http://www.bohemiancoding.com/sketch -->
    <title>ic_play_list</title>
    <desc>Created with Sketch Beta.</desc>
    <defs></defs>
    <g id="page" stroke="none" stroke-width="1" fill="none" fill-rule="evenodd">
        <g id="Desktop-1600-(1360+)-Copy" transform="translate(-1324.000000, -26.000000)" fill="#ECEFF1">
            <g id="header">
                <path d="M1329,26 L1340,26 L1340,28 L1329,28 L1329,26 Z M1324,26 L1326,26 L1326,28 L1324,28 L1324,26 Z M1329,33 L1340,33 L1340,35 L1329,35 L1329,33 Z M1324,33 L1326,33 L1326,35 L1324,35 L1324,33 Z M1329,40 L1340,40 L1340,42 L1329,42 L1329,40 Z M1324,40 L1326,40 L1326,42 L1324,42 L1324,40 Z" id="ic_play_list"></path>
            </g>
        </g>
    </g>
</svg>